{
    "idle": {
        "prefix"      : "la000_",
        "suffix"      : ".png",
        "frame_start" : 0,
        "frame_end"   : 11,
        "loop"        : true,
        "speed"       : 10
    },
    "run": {
        "prefix"      : "la032_",
        "suffix"      : ".png",
        "frame_start" : 2,
        "frame_end"   : 4,
        "loop"        : true,
        "speed"       : 10
    },
    "block": {
        "prefix"      : "la040_",
        "suffix"      : ".png",
        "frame_start" : 3,
        "frame_end"   : 4,
        "loop"        : false,
        "speed"       : 10
    },
    "death": {
        "prefix" : "la070_",
        "suffix" : ".png",
        "frame_start" : 0,
        "frame_end"  : 11,
        "loop"      : false,
        "speed"     : 20
    },
    "jump_start" : {
        "prefix"      : "la033_",
        "suffix"      : ".png",
        "frame_start" : 0,
        "frame_end"   : 1,
        "loop"        : false,
        "speed"       : 15
    },
    "jump_idle" : {
        "prefix"      : "la033_",
        "suffix"      : ".png",
        "frame_start" : 1,
        "frame_end"   : 2,
        "loop"        : true,
        "speed"       : 10
    },
    "jump_end" : {
        "prefix"      : "la033_",
        "suffix"      : ".png",
        "frame_start" : 3,
        "frame_end"   : 4,
        "loop"        : false,
        "speed"       : 15
    },
    "attack_0" : {
        "prefix"      : "la210_",
        "suffix"      : ".png",
        "frame_start" : 0,
        "frame_end"   : 12,
        "loop"        : false,
        "speed"       : 10
    },
    "attack_1" : {
        "prefix"      : "la211_",
        "suffix"      : ".png",
        "frame_start" : 0,
        "frame_end"   : 12,
        "loop"        : false,
        "speed"       : 10
    },
    "special_0" : {
        "prefix"      : "la200_",
        "suffix"      : ".png",
        "frame_start" : 0,
        "frame_end"   : 6,
        "loop"        : false,
        "speed"       : 10
    },
    "special_1" : {
        "prefix"      : "la201_",
        "suffix"      : ".png",
        "frame_start" : 0,
        "frame_end"   : 9,
        "loop"        : false,
        "speed"       : 15
    },
    "special_2" : {
        "prefix"      : "la202_",
        "suffix"      : ".png",
        "frame_start" : 0,
        "frame_end"   : 9,
        "loop"        : false,
        "speed"       : 15
    },
    "special_3" : {
        "prefix"      : "la203_",
        "suffix"      : ".png",
        "frame_start" : 0,
        "frame_end"   : 8,
        "loop"        : false,
        "speed"       : 15
    },
    "special_4" : {
        "prefix"      : "la204_",
        "suffix"      : ".png",
        "frame_start" : 2,
        "frame_end"   : 6,
        "loop"        : false,
        "speed"       : 15
    },
    "special_5_start" : {
        "prefix"      : "la205_",
        "suffix"      : ".png",
        "frame_start" : 0,
        "frame_end"   : 2,
        "loop"        : false,
        "speed"       : 15
    },
    "special_5_idle" : {
        "prefix"      : "la205_",
        "suffix"      : ".png",
        "frame_start" : 3,
        "frame_end"  : 5,
        "loop"      : true,
        "speed"     : 10
    },
    "special_5_end" : {
        "prefix"      : "la205_",
        "suffix"      : ".png",
        "frame_start" : 6,
        "frame_end"   : 7,
        "loop"        : false,
        "speed"       : 15
    },
    "victory" : {
        "prefix"      : "la450_",
        "suffix"      : ".png",
        "frame_start" : 0,
        "frame_end"   : 5,
        "loop"        : false,
        "speed"       : 10
    },
    "victory_idle" : {
        "prefix"      : "la450_",
        "suffix"      : ".png",
        "frame_start" : 6,
        "frame_end"   : 8,
        "loop"        : true,
        "speed"       : 10
    }
}