{
  "spritemap": {
    "intro": {
      "start": 4.5,
      "end": 6.8,
      "loop": false
    },
    "turn_start": {
      "start": 4.5,
      "end": 6.8,
      "loop": false
    },
    "block": {
      "start": 14.6,
      "end": 15.1,
      "loop": false
    },
    "jump_1": {
      "start": 16.3,
      "end": 16.7,
      "loop": false
    },
    "jump_2": {
      "start": 17.5,
      "end": 17.9,
      "loop": false
    },
    "jump_3": {
      "start": 18,
      "end": 18.3,
      "loop": false
    },
    "attack_0_start":{
      "start": 1.7,
      "end": 2.6,
      "loop": false
    },
    "attack_0": {
      "start": 62.5,
      "end": 63.3,
      "loop": false
    },
    "attack_1_start":{
      "start": 47.2,
      "end": 48.7,
      "loop": false
    },
    "attack_1": {
      "start": 16.7,
      "end": 17.4,
      "loop": false
    },
    "special_start": {
      "start": 2.6,
      "end": 4.5,
      "loop": false
    },
    "special_0": {
      "start": 67.7,
      "end": 68.7,
      "loop": false
    },
    "special_1": {
      "start": 68.7,
      "end": 69.7,
      "loop": false
    },
    "special_2": {
      "start": 69.7,
      "end": 70.7,
      "loop": false
    },
    "special_3": {
      "start": 70.7,
      "end": 72,
      "loop": false
    },
    "special_cut": {
      "start": 65.9,
      "end": 67.7,
      "loop": false
    },
    "special_end": {
      "start": 63.3,
      "end": 65.9,
      "loop": false
    },
    "victory": {
      "start": 55.1,
      "end": 57.4,
      "loop": false
    }
  }
}