[
  {
    "title" : "Lead Programmer",
    "name"  : "Eric Jarrige"
  },
  {
    "title" : "Graphics",
    "name"  : "Atlus Co., Ltd."
  },
  {
    "title" : "Music",
    "name"  : "Ferdk"
  },
  {
    "title" : "Original Music",
    "name"  : "Shoji Meguro"
  },
  {
    "title" : "Video",
    "name"  : "mclelun"
  },
  {
    "title" : "Special Thanks",
    "name"  : "David Panzoli"
  },
  {
    "title" : "Special Thanks",
    "name"  : "Alex Rosset"
  },
  {
    "title" : "Special Thanks",
    "name"  : "Aiko Shogo"
  },
  {
    "title" : "Special Thanks",
    "name"  : "etc"
  },
  {
    "title" : "Special Thanks",
    "name"  : "etc"
  },
  {
    "title" : "Special Thanks",
    "name"  : "etc"
  },
  {
    "title" : "Special Thanks",
    "name"  : "etc"
  },
  {
    "title" : "Special Thanks",
    "name"  : "etc"
  },
  {
    "title" : "Special Thanks",
    "name"  : "etc"
  },
  {
    "title" : "Special Thanks",
    "name"  : "etc"
  }
]